C:\Users\sunil\eclipse-workspace\Cucumber_framework\src\main\java\pages\actions\CarSearchPageActions.java
C:\Users\sunil\eclipse-workspace\Cucumber_framework\src\main\java\pages\actions\CarsGuideHomePageActions.java
C:\Users\sunil\eclipse-workspace\Cucumber_framework\src\main\java\pages\locators\UsedCarSearchPageLocators.java
C:\Users\sunil\eclipse-workspace\Cucumber_framework\src\main\java\pages\locators\CarSearchPageLocators.java
C:\Users\sunil\eclipse-workspace\Cucumber_framework\src\main\java\utils\SeleniumHelper.java
C:\Users\sunil\eclipse-workspace\Cucumber_framework\src\main\java\pages\locators\CarsGuideHomePageLocators.java
C:\Users\sunil\eclipse-workspace\Cucumber_framework\src\main\java\utils\SeleniumDriver.java
C:\Users\sunil\eclipse-workspace\Cucumber_framework\src\main\java\pages\actions\UsedCarsSearchPageActions.java
