C:\Users\sunil\eclipse-workspace\Cucumber_framework\src\test\java\runners\NegativeTest.java
C:\Users\sunil\eclipse-workspace\Cucumber_framework\src\test\java\steps\BeforeActions.java
C:\Users\sunil\eclipse-workspace\Cucumber_framework\src\test\java\steps\SearchCarsSteps.java
C:\Users\sunil\eclipse-workspace\Cucumber_framework\src\test\java\runners\PositiveTest.java
C:\Users\sunil\eclipse-workspace\Cucumber_framework\src\test\java\steps\AfterActions.java
C:\Users\sunil\eclipse-workspace\Cucumber_framework\src\test\java\steps\UsedCarSearchSteps.java
